RISC-V.sim/sim_1/behav/xsim/simulate.log
Vivado Simulator 2020.1
Time resolution is 1 ps
Instruction           0: 00000010100000000000000011101111
Instruction           1: 00000010000100000010000000100011
Instruction           2: 00000011110000000000000011101111
Instruction           3: 11111111111111111111111100000011
Instruction           4: 11111111111111111111111100000100
Instruction           5: 00000000000100000010110000100011
Instruction           6: 00000000010000001000000011100111
Instruction           7: 11111111111111111111111100000111
Instruction           8: 11111111111111111111111100001000
Instruction           9: 11111111111111111111111100001001
Instruction          10: 00000000000100000010101000100011
Instruction          11: 11111110100111111111000011101111
Instruction          12: 11111111111111111111111100001010
Instruction          13: 00000000000100000010111000100011
Instruction          14: 11111110100000001000000011100111
Instruction          15: 11111111111111111111111100001111
Instruction          16: 11111111111111111111111100010000
Instruction          17: 00001010101010101010000100010111
Instruction          18: 00000010001000000010001000100011
Instruction          19: 11111111111111111111000100010111
Instruction          20: 00000010001000000010010000100011
Instruction          21: 10101010101010101010101010101010
Running jump and pc test
JAL: 	pc = 0 	rd = r1 	offset = 40
SW: 	pc = 40 	base = r0 	src = r1 	offset = 20 	address = 20 	value = 4
JAL: 	pc = 44 	rd = r1 	offset = -24
SW: 	pc = 20 	base = r0 	src = r1 	offset = 24 	address = 24 	value = 48
JALR: 	pc = 24 	rd = r1 	rs1 = r1 	offset = 4 	base = 48 	result = 52
SW: 	pc = 52 	base = r0 	src = r1 	offset = 28 	address = 28 	value = 28
JALR: 	pc = 56 	rd = r1 	rs1 = r1 	offset = -24 	base = 28 	result = 4
SW: 	pc = 4 	base = r0 	src = r1 	offset = 32 	address = 32 	value = 60
JAL: 	pc = 8 	rd = r1 	offset = 60
AUIPC: 	rd = r2 	imm = 178954240 	pc = 68 	result = 178954308
SW: 	pc = 72 	base = r0 	src = r2 	offset = 36 	address = 36 	value = 178954308
AUIPC: 	rd = r2 	imm = -4096 	pc = 76 	result = -4020
SW: 	pc = 80 	base = r0 	src = r2 	offset = 40 	address = 40 	value = -4020
Unknown instruction: aaaaaaaa
End Running... pc:          88
JAL for assert passed with 4
JAL rev assert passed with 48
JALR for assert passed with 28
JALR rev assert passed with 60
AUIPC for assert passed with 178954308
AUIPC rev assert passed with -4020
PASS: Jump and pc test
Instruction           0: 00000000000000001111000010110011
Instruction           1: 00000000000000000000010100110111
Instruction           2: 00000101100001010000010100010011
Instruction           3: 00000001010000001000000010010011
Instruction           4: 00000000000000001010000000100011
Instruction           5: 00000000010000001000000010010011
Instruction           6: 11111110101000001100110011100011
Instruction           7: 00000000110000000000000110000011
Instruction           8: 00000000001100000000101000100011
Instruction           9: 00000000110100000000000110000011
Instruction          10: 00000000001100000000111000100011
Instruction          11: 00000000111000000000000110000011
Instruction          12: 00000010001100000000001000100011
Instruction          13: 00000000111100000000000110000011
Instruction          14: 00000010001100000010011000100011
Instruction          15: 00000001000000000000000110000011
Instruction          16: 00000000001100000000110000100011
Instruction          17: 00000001000100000000000110000011
Instruction          18: 00000010001100000000000000100011
Instruction          19: 00000001001000000000000110000011
Instruction          20: 00000010001100000000010000100011
Instruction          21: 00000001001100000000000110000011
Instruction          22: 00000010001100000010100000100011
Instruction          23: 00000000110000000100000110000011
Instruction          24: 00000100001100000010001000100011
Instruction          25: 00000001000000000100000110000011
Instruction          26: 00000100001100000010010000100011
Instruction          27: 00000000110000000001000110000011
Instruction          28: 00000010001100000001101000100011
Instruction          29: 00000000111000000001000110000011
Instruction          30: 00000010001100000010111000100011
Instruction          31: 00000001000000000001000110000011
Instruction          32: 00000010001100000001110000100011
Instruction          33: 00000001001000000001000110000011
Instruction          34: 00000100001100000010000000100011
Instruction          35: 00000000110000000101000110000011
Instruction          36: 00000100001100000010011000100011
Instruction          37: 00000001000000000101000110000011
Instruction          38: 00000100001100000010100000100011
Instruction          39: 00000000110000000010000110000011
Instruction          40: 00000100001100000010101000100011
Instruction          41: 00000001000000000010000110000011
Instruction          42: 00000100001100000010110000100011
Running Load and Store test
AND: 	pc = 0 	rd = r1 	rs1 = r1 	rs2 = r0 	alu1 = 0 	alu2 = 0 	result = 0
LUI: 	pc = 4 	rd = r10 	imm = 0 	result = 0
ADDI: 	pc = 8 	rd = r10 	rs1 = r10 	alu1 = 0 	alu2 = 88 	result = 88
ADDI: 	pc = 12 	rd = r1 	rs1 = r1 	alu1 = 0 	alu2 = 20 	result = 20
SW: 	pc = 16 	base = r1 	src = r0 	offset = 0 	address = 20 	value = 0
ADDI: 	pc = 20 	rd = r1 	rs1 = r1 	alu1 = 20 	alu2 = 4 	result = 24
BLT: 	pc = 24 	rs1 = r1 	rs2 = r10 	adata = 24 	bdata = 88 	offset = -8 	br_ne = 1 	br_lt = 1 	unsign = 0
SW: 	pc = 16 	base = r1 	src = r0 	offset = 0 	address = 24 	value = 0
ADDI: 	pc = 20 	rd = r1 	rs1 = r1 	alu1 = 24 	alu2 = 4 	result = 28
BLT: 	pc = 24 	rs1 = r1 	rs2 = r10 	adata = 28 	bdata = 88 	offset = -8 	br_ne = 1 	br_lt = 1 	unsign = 0
SW: 	pc = 16 	base = r1 	src = r0 	offset = 0 	address = 28 	value = 0
ADDI: 	pc = 20 	rd = r1 	rs1 = r1 	alu1 = 28 	alu2 = 4 	result = 32
BLT: 	pc = 24 	rs1 = r1 	rs2 = r10 	adata = 32 	bdata = 88 	offset = -8 	br_ne = 1 	br_lt = 1 	unsign = 0
SW: 	pc = 16 	base = r1 	src = r0 	offset = 0 	address = 32 	value = 0
ADDI: 	pc = 20 	rd = r1 	rs1 = r1 	alu1 = 32 	alu2 = 4 	result = 36
BLT: 	pc = 24 	rs1 = r1 	rs2 = r10 	adata = 36 	bdata = 88 	offset = -8 	br_ne = 1 	br_lt = 1 	unsign = 0
SW: 	pc = 16 	base = r1 	src = r0 	offset = 0 	address = 36 	value = 0
ADDI: 	pc = 20 	rd = r1 	rs1 = r1 	alu1 = 36 	alu2 = 4 	result = 40
BLT: 	pc = 24 	rs1 = r1 	rs2 = r10 	adata = 40 	bdata = 88 	offset = -8 	br_ne = 1 	br_lt = 1 	unsign = 0
SW: 	pc = 16 	base = r1 	src = r0 	offset = 0 	address = 40 	value = 0
ADDI: 	pc = 20 	rd = r1 	rs1 = r1 	alu1 = 40 	alu2 = 4 	result = 44
BLT: 	pc = 24 	rs1 = r1 	rs2 = r10 	adata = 44 	bdata = 88 	offset = -8 	br_ne = 1 	br_lt = 1 	unsign = 0
SW: 	pc = 16 	base = r1 	src = r0 	offset = 0 	address = 44 	value = 0
ADDI: 	pc = 20 	rd = r1 	rs1 = r1 	alu1 = 44 	alu2 = 4 	result = 48
BLT: 	pc = 24 	rs1 = r1 	rs2 = r10 	adata = 48 	bdata = 88 	offset = -8 	br_ne = 1 	br_lt = 1 	unsign = 0
SW: 	pc = 16 	base = r1 	src = r0 	offset = 0 	address = 48 	value = 0
ADDI: 	pc = 20 	rd = r1 	rs1 = r1 	alu1 = 48 	alu2 = 4 	result = 52
BLT: 	pc = 24 	rs1 = r1 	rs2 = r10 	adata = 52 	bdata = 88 	offset = -8 	br_ne = 1 	br_lt = 1 	unsign = 0
SW: 	pc = 16 	base = r1 	src = r0 	offset = 0 	address = 52 	value = 0
ADDI: 	pc = 20 	rd = r1 	rs1 = r1 	alu1 = 52 	alu2 = 4 	result = 56
BLT: 	pc = 24 	rs1 = r1 	rs2 = r10 	adata = 56 	bdata = 88 	offset = -8 	br_ne = 1 	br_lt = 1 	unsign = 0
SW: 	pc = 16 	base = r1 	src = r0 	offset = 0 	address = 56 	value = 0
ADDI: 	pc = 20 	rd = r1 	rs1 = r1 	alu1 = 56 	alu2 = 4 	result = 60
BLT: 	pc = 24 	rs1 = r1 	rs2 = r10 	adata = 60 	bdata = 88 	offset = -8 	br_ne = 1 	br_lt = 1 	unsign = 0
SW: 	pc = 16 	base = r1 	src = r0 	offset = 0 	address = 60 	value = 0
ADDI: 	pc = 20 	rd = r1 	rs1 = r1 	alu1 = 60 	alu2 = 4 	result = 64
BLT: 	pc = 24 	rs1 = r1 	rs2 = r10 	adata = 64 	bdata = 88 	offset = -8 	br_ne = 1 	br_lt = 1 	unsign = 0
SW: 	pc = 16 	base = r1 	src = r0 	offset = 0 	address = 64 	value = 0
ADDI: 	pc = 20 	rd = r1 	rs1 = r1 	alu1 = 64 	alu2 = 4 	result = 68
BLT: 	pc = 24 	rs1 = r1 	rs2 = r10 	adata = 68 	bdata = 88 	offset = -8 	br_ne = 1 	br_lt = 1 	unsign = 0
SW: 	pc = 16 	base = r1 	src = r0 	offset = 0 	address = 68 	value = 0
ADDI: 	pc = 20 	rd = r1 	rs1 = r1 	alu1 = 68 	alu2 = 4 	result = 72
BLT: 	pc = 24 	rs1 = r1 	rs2 = r10 	adata = 72 	bdata = 88 	offset = -8 	br_ne = 1 	br_lt = 1 	unsign = 0
SW: 	pc = 16 	base = r1 	src = r0 	offset = 0 	address = 72 	value = 0
ADDI: 	pc = 20 	rd = r1 	rs1 = r1 	alu1 = 72 	alu2 = 4 	result = 76
BLT: 	pc = 24 	rs1 = r1 	rs2 = r10 	adata = 76 	bdata = 88 	offset = -8 	br_ne = 1 	br_lt = 1 	unsign = 0
SW: 	pc = 16 	base = r1 	src = r0 	offset = 0 	address = 76 	value = 0
ADDI: 	pc = 20 	rd = r1 	rs1 = r1 	alu1 = 76 	alu2 = 4 	result = 80
BLT: 	pc = 24 	rs1 = r1 	rs2 = r10 	adata = 80 	bdata = 88 	offset = -8 	br_ne = 1 	br_lt = 1 	unsign = 0
SW: 	pc = 16 	base = r1 	src = r0 	offset = 0 	address = 80 	value = 0
ADDI: 	pc = 20 	rd = r1 	rs1 = r1 	alu1 = 80 	alu2 = 4 	result = 84
BLT: 	pc = 24 	rs1 = r1 	rs2 = r10 	adata = 84 	bdata = 88 	offset = -8 	br_ne = 1 	br_lt = 1 	unsign = 0
SW: 	pc = 16 	base = r1 	src = r0 	offset = 0 	address = 84 	value = 0
ADDI: 	pc = 20 	rd = r1 	rs1 = r1 	alu1 = 84 	alu2 = 4 	result = 88
BLT: 	pc = 24 	rs1 = r1 	rs2 = r10 	adata = 88 	bdata = 88 	offset = -8 	br_ne = 0 	br_lt = 0 	unsign = 0
LB: 	pc = 28 	base = r0 	offset = 12 	address = 12 	value = -86
SB: 	pc = 32 	base = r0 	src = r3 	offset = 20 	address = 20 	value = -86
LB: 	pc = 36 	base = r0 	offset = 13 	address = 13 	value = -86
SB: 	pc = 40 	base = r0 	src = r3 	offset = 28 	address = 28 	value = -86
LB: 	pc = 44 	base = r0 	offset = 14 	address = 14 	value = -86
SB: 	pc = 48 	base = r0 	src = r3 	offset = 36 	address = 36 	value = -86
LB: 	pc = 52 	base = r0 	offset = 15 	address = 15 	value = -86
SW: 	pc = 56 	base = r0 	src = r3 	offset = 44 	address = 44 	value = -86
LB: 	pc = 60 	base = r0 	offset = 16 	address = 16 	value = 85
SB: 	pc = 64 	base = r0 	src = r3 	offset = 24 	address = 24 	value = 85
LB: 	pc = 68 	base = r0 	offset = 17 	address = 17 	value = 85
SB: 	pc = 72 	base = r0 	src = r3 	offset = 32 	address = 32 	value = 85
LB: 	pc = 76 	base = r0 	offset = 18 	address = 18 	value = 85
SB: 	pc = 80 	base = r0 	src = r3 	offset = 40 	address = 40 	value = 85
LB: 	pc = 84 	base = r0 	offset = 19 	address = 19 	value = 85
SW: 	pc = 88 	base = r0 	src = r3 	offset = 48 	address = 48 	value = 85
LBU: 	pc = 92 	base = r0 	offset = 12 	address = 12 	value = 170
SW: 	pc = 96 	base = r0 	src = r3 	offset = 68 	address = 68 	value = 170
LBU: 	pc = 100 	base = r0 	offset = 16 	address = 16 	value = 85
SW: 	pc = 104 	base = r0 	src = r3 	offset = 72 	address = 72 	value = 85
LH: 	pc = 108 	base = r0 	offset = 12 	address = 12 	value = -21846
SH: 	pc = 112 	base = r0 	src = r3 	offset = 52 	address = 52 	value = -21846
LH: 	pc = 116 	base = r0 	offset = 14 	address = 14 	value = -21846
SW: 	pc = 120 	base = r0 	src = r3 	offset = 60 	address = 60 	value = -21846
LH: 	pc = 124 	base = r0 	offset = 16 	address = 16 	value = 21845
SH: 	pc = 128 	base = r0 	src = r3 	offset = 56 	address = 56 	value = 21845
LH: 	pc = 132 	base = r0 	offset = 18 	address = 18 	value = 21845
SW: 	pc = 136 	base = r0 	src = r3 	offset = 64 	address = 64 	value = 21845
LHU: 	pc = 140 	base = r0 	offset = 12 	address = 12 	value = 43690
SW: 	pc = 144 	base = r0 	src = r3 	offset = 76 	address = 76 	value = 43690
LHU: 	pc = 148 	base = r0 	offset = 16 	address = 16 	value = 21845
SW: 	pc = 152 	base = r0 	src = r3 	offset = 80 	address = 80 	value = 21845
LW: 	pc = 156 	base = r0 	offset = 12 	address = 12 	value = -1431655766
SW: 	pc = 160 	base = r0 	src = r3 	offset = 84 	address = 84 	value = -1431655766
LW: 	pc = 164 	base = r0 	offset = 16 	address = 16 	value = 1431655765
SW: 	pc = 168 	base = r0 	src = r3 	offset = 88 	address = 88 	value = 1431655765
End Running... pc:         172
LSB1_1 assert passed with 170
LSB1_2 assert passed with 170
LSB1_3 assert passed with 170
LSB1_4 assert passed with -86
LSB2_1 assert passed with 85
LSB2_2 assert passed with 85
LSB2_3 assert passed with 85
LSB2_4 assert passed with 85
LSBU1 assert passed with 170
LSBU2 assert passed with 85
LSH1_1 assert passed with 43690
LSH1_2 assert passed with -21846
LSH2_1 assert passed with 21845
LSH2_2 assert passed with 21845
LSHU1 assert passed with 43690
LSHU2 assert passed with 21845
LSW1 assert passed with -1431655766
LSW2 assert passed with 1431655765
PASS: Load and Store test
Instruction           0: 00000000000000000000000010110111
Instruction           1: 00000000010100001000000010010011
Instruction           2: 00000000000000000000000110110111
Instruction           3: 11111111110000011000000110010011
Instruction           4: 00000000001100001010000100110011
Instruction           5: 00000000001000000010110000100011
Instruction           6: 00000000001100001011000100110011
Instruction           7: 00000000001000000010111000100011
Instruction           8: 00000000000100001010000100110011
Instruction           9: 00000010001000000010111000100011
Instruction          10: 00000000000100001011000100110011
Instruction          11: 00000100001000000010000000100011
Instruction          12: 00000000000100011010000100110011
Instruction          13: 00000000001000000010101000100011
Instruction          14: 00000000000100011011000100110011
Instruction          15: 00000010001000000010000000100011
Instruction          16: 11111100101001000000000010110111
Instruction          17: 11001010001100001000000010010011
Instruction          18: 11111100010101000000000110110111
Instruction          19: 11000101001100011000000110010011
Instruction          20: 00000000001100001100000100110011
Instruction          21: 00000010001000000010001000100011
Instruction          22: 00000000001100001110000100110011
Instruction          23: 00000010001000000010010000100011
Instruction          24: 00000000001100001111000100110011
Instruction          25: 00000010001000000010011000100011
Instruction          26: 10101010101010101011000010110111
Instruction          27: 10101010101000001000000010010011
Instruction          28: 00000000000000010000000110110111
Instruction          29: 11110000100000011000000110010011
Instruction          30: 00000000001100001001000100110011
Instruction          31: 00000010001000000010100000100011
Instruction          32: 00000000001100001101000100110011
Instruction          33: 00000010001000000010101000100011
Instruction          34: 01000000001100001101000100110011
Instruction          35: 00000010001000000010110000100011
Instruction          36: 00000000000000000010000010110111
Instruction          37: 01110001000000001000000010010011
Instruction          38: 11111111111111111010000110110111
Instruction          39: 01000110000000011000000110010011
Instruction          40: 00000000000100001000000100110011
Instruction          41: 00000100001000000010001000100011
Instruction          42: 00000000001100001000000100110011
Instruction          43: 00000100001000000010010000100011
Instruction          44: 00000000001100011000000100110011
Instruction          45: 00000100001000000010011000100011
Instruction          46: 01000000000100001000000100110011
Instruction          47: 00000100001000000010100000100011
Instruction          48: 01000000001100001000000100110011
Instruction          49: 00000100001000000010101000100011
Instruction          50: 01000000000100011000000100110011
Instruction          51: 00000100001000000010110000100011
Instruction          52: 01000000001100011000000100110011
Instruction          53: 00000100001000000010111000100011
Running alu test
LUI: 	pc = 0 	rd = r1 	imm = 0 	result = 0
ADDI: 	pc = 4 	rd = r1 	rs1 = r1 	alu1 = 0 	alu2 = 5 	result = 5
LUI: 	pc = 8 	rd = r3 	imm = 0 	result = 0
ADDI: 	pc = 12 	rd = r3 	rs1 = r3 	alu1 = 0 	alu2 = -4 	result = -4
SLT: 	pc = 16 	rd = r2 	rs1 = r1 	rs2 = r3 	alu1 = 5 	alu2 = -4 	result = 0
SW: 	pc = 20 	base = r0 	src = r2 	offset = 24 	address = 24 	value = 0
SLTU: 	pc = 24 	rd = r2 	rs1 = r1 	rs2 = r3 	alu1 = 5 	alu2 = -4 	result = 1
SW: 	pc = 28 	base = r0 	src = r2 	offset = 28 	address = 28 	value = 1
SLT: 	pc = 32 	rd = r2 	rs1 = r1 	rs2 = r1 	alu1 = 5 	alu2 = 5 	result = 0
SW: 	pc = 36 	base = r0 	src = r2 	offset = 60 	address = 60 	value = 0
SLTU: 	pc = 40 	rd = r2 	rs1 = r1 	rs2 = r1 	alu1 = 5 	alu2 = 5 	result = 0
SW: 	pc = 44 	base = r0 	src = r2 	offset = 64 	address = 64 	value = 0
SLT: 	pc = 48 	rd = r2 	rs1 = r3 	rs2 = r1 	alu1 = -4 	alu2 = 5 	result = 1
SW: 	pc = 52 	base = r0 	src = r2 	offset = 20 	address = 20 	value = 1
SLTU: 	pc = 56 	rd = r2 	rs1 = r3 	rs2 = r1 	alu1 = -4 	alu2 = 5 	result = 0
SW: 	pc = 60 	base = r0 	src = r2 	offset = 32 	address = 32 	value = 0
LUI: 	pc = 64 	rd = r1 	imm = -56360960 	result = -56360960
ADDI: 	pc = 68 	rd = r1 	rs1 = r1 	alu1 = -56360960 	alu2 = -861 	result = -56361821
LUI: 	pc = 72 	rd = r3 	imm = -61603840 	result = -61603840
ADDI: 	pc = 76 	rd = r3 	rs1 = r3 	alu1 = -61603840 	alu2 = -941 	result = -61604781
XOR: 	pc = 80 	rd = r2 	rs1 = r1 	rs2 = r3 	alu1 = -56361821 	alu2 = -61604781 	result = 15728880
SW: 	pc = 84 	base = r0 	src = r2 	offset = 36 	address = 36 	value = 15728880
OR: 	pc = 88 	rd = r2 	rs1 = r1 	rs2 = r3 	alu1 = -56361821 	alu2 = -61604781 	result = -51118861
SW: 	pc = 92 	base = r0 	src = r2 	offset = 40 	address = 40 	value = -51118861
AND: 	pc = 96 	rd = r2 	rs1 = r1 	rs2 = r3 	alu1 = -56361821 	alu2 = -61604781 	result = -66847741
SW: 	pc = 100 	base = r0 	src = r2 	offset = 44 	address = 44 	value = -66847741
LUI: 	pc = 104 	rd = r1 	imm = -1431654400 	result = -1431654400
ADDI: 	pc = 108 	rd = r1 	rs1 = r1 	alu1 = -1431654400 	alu2 = -1366 	result = -1431655766
LUI: 	pc = 112 	rd = r3 	imm = 65536 	result = 65536
ADDI: 	pc = 116 	rd = r3 	rs1 = r3 	alu1 = 65536 	alu2 = -248 	result = 65288
SLL: 	pc = 120 	rd = r2 	rs1 = r1 	rs2 = r3 	alu1 = -1431655766 	alu2 = 65288 	result = -1431655936
SW: 	pc = 124 	base = r0 	src = r2 	offset = 48 	address = 48 	value = -1431655936
SRL: 	pc = 128 	rd = r2 	rs1 = r1 	rs2 = r3 	alu1 = -1431655766 	alu2 = 65288 	result = 11184810
SW: 	pc = 132 	base = r0 	src = r2 	offset = 52 	address = 52 	value = 11184810
SRA: 	pc = 136 	rd = r2 	rs1 = r1 	rs2 = r3 	alu1 = -1431655766 	alu2 = 65288 	result = -5592406
SW: 	pc = 140 	base = r0 	src = r2 	offset = 56 	address = 56 	value = -5592406
LUI: 	pc = 144 	rd = r1 	imm = 8192 	result = 8192
ADDI: 	pc = 148 	rd = r1 	rs1 = r1 	alu1 = 8192 	alu2 = 1808 	result = 10000
LUI: 	pc = 152 	rd = r3 	imm = -24576 	result = -24576
ADDI: 	pc = 156 	rd = r3 	rs1 = r3 	alu1 = -24576 	alu2 = 1120 	result = -23456
ADD: 	pc = 160 	rd = r2 	rs1 = r1 	rs2 = r1 	alu1 = 10000 	alu2 = 10000 	result = 20000
SW: 	pc = 164 	base = r0 	src = r2 	offset = 68 	address = 68 	value = 20000
ADD: 	pc = 168 	rd = r2 	rs1 = r1 	rs2 = r3 	alu1 = 10000 	alu2 = -23456 	result = -13456
SW: 	pc = 172 	base = r0 	src = r2 	offset = 72 	address = 72 	value = -13456
ADD: 	pc = 176 	rd = r2 	rs1 = r3 	rs2 = r3 	alu1 = -23456 	alu2 = -23456 	result = -46912
SW: 	pc = 180 	base = r0 	src = r2 	offset = 76 	address = 76 	value = -46912
SUB: 	pc = 184 	rd = r2 	rs1 = r1 	rs2 = r1 	alu1 = 10000 	alu2 = 10000 	result = 0
SW: 	pc = 188 	base = r0 	src = r2 	offset = 80 	address = 80 	value = 0
SUB: 	pc = 192 	rd = r2 	rs1 = r1 	rs2 = r3 	alu1 = 10000 	alu2 = -23456 	result = 33456
SW: 	pc = 196 	base = r0 	src = r2 	offset = 84 	address = 84 	value = 33456
SUB: 	pc = 200 	rd = r2 	rs1 = r3 	rs2 = r1 	alu1 = -23456 	alu2 = 10000 	result = -33456
SW: 	pc = 204 	base = r0 	src = r2 	offset = 88 	address = 88 	value = -33456
SUB: 	pc = 208 	rd = r2 	rs1 = r3 	rs2 = r3 	alu1 = -23456 	alu2 = -23456 	result = 0
SW: 	pc = 212 	base = r0 	src = r2 	offset = 92 	address = 92 	value = 0
End Running... pc:         216
SLT true assert passed with 1
SLT false assert passed with 0
SLT equal assert passed with 0
SLTU true assert passed with 1
SLTU false assert passed with 0
SLTU equal assert passed with 0
XOR assert passed with 15728880
OR assert passed with -51118861
AND assert passed with -66847741
SLL assert passed with -1431655936
SLR assert passed with 11184810
SRA assert passed with -5592406
ADD pos pos assert passed with 20000
ADD pos neg assert passed with -13456
ADD neg neg assert passed with -46912
SUB pos pos assert passed with 0
SUB pos neg assert passed with 33456
SUB neg pos assert passed with -33456
SUB neg neg assert passed with 0
PASS: ALU test
Instruction           0: 00000000000000000000000010110111
Instruction           1: 00000000010100001000000010010011
Instruction           2: 11111111110000001010000100010011
Instruction           3: 00000000001000000010110000100011
Instruction           4: 11111111110000001011000100010011
Instruction           5: 00000000001000000010111000100011
Instruction           6: 00000000010100001010000100010011
Instruction           7: 00000010001000000010111000100011
Instruction           8: 00000000010100001011000100010011
Instruction           9: 00000100001000000010000000100011
Instruction          10: 00000000000000000000000010110111
Instruction          11: 11111111110000001000000010010011
Instruction          12: 00000000010100001010000100010011
Instruction          13: 00000000001000000010101000100011
Instruction          14: 00000000010100001011000100010011
Instruction          15: 00000010001000000010000000100011
Instruction          16: 00000000000100000111000010110011
Instruction          17: 11001010001100001000000010010011
Instruction          18: 11000101001100001100000100010011
Instruction          19: 00000010001000000010001000100011
Instruction          20: 11000101001100001110000100010011
Instruction          21: 00000010001000000010010000100011
Instruction          22: 11000101001100001111000100010011
Instruction          23: 00000010001000000010011000100011
Instruction          24: 10101010101010101011000010110111
Instruction          25: 10101010101000001000000010010011
Instruction          26: 00000000100000001001000100010011
Instruction          27: 00000010001000000010100000100011
Instruction          28: 00000000100000001101000100010011
Instruction          29: 00000010001000000010101000100011
Instruction          30: 01000000100000001101000100010011
Instruction          31: 00000010001000000010110000100011
Running immediate alu test
LUI: 	pc = 0 	rd = r1 	imm = 0 	result = 0
ADDI: 	pc = 4 	rd = r1 	rs1 = r1 	alu1 = 0 	alu2 = 5 	result = 5
SLTI: 	pc = 8 	rd = r2 	rs1 = r1 	alu1 = 5 	alu2 = -4 	result = 0
SW: 	pc = 12 	base = r0 	src = r2 	offset = 24 	address = 24 	value = 0
SLTIU: 	pc = 16 	rd = r2 	rs1 = r1 	alu1 = 5 	alu2 = -4 	result = 1
SW: 	pc = 20 	base = r0 	src = r2 	offset = 28 	address = 28 	value = 1
SLTI: 	pc = 24 	rd = r2 	rs1 = r1 	alu1 = 5 	alu2 = 5 	result = 0
SW: 	pc = 28 	base = r0 	src = r2 	offset = 60 	address = 60 	value = 0
SLTIU: 	pc = 32 	rd = r2 	rs1 = r1 	alu1 = 5 	alu2 = 5 	result = 0
SW: 	pc = 36 	base = r0 	src = r2 	offset = 64 	address = 64 	value = 0
LUI: 	pc = 40 	rd = r1 	imm = 0 	result = 0
ADDI: 	pc = 44 	rd = r1 	rs1 = r1 	alu1 = 0 	alu2 = -4 	result = -4
SLTI: 	pc = 48 	rd = r2 	rs1 = r1 	alu1 = -4 	alu2 = 5 	result = 1
SW: 	pc = 52 	base = r0 	src = r2 	offset = 20 	address = 20 	value = 1
SLTIU: 	pc = 56 	rd = r2 	rs1 = r1 	alu1 = -4 	alu2 = 5 	result = 0
SW: 	pc = 60 	base = r0 	src = r2 	offset = 32 	address = 32 	value = 0
AND: 	pc = 64 	rd = r1 	rs1 = r0 	rs2 = r1 	alu1 = 0 	alu2 = -4 	result = 0
ADDI: 	pc = 68 	rd = r1 	rs1 = r1 	alu1 = 0 	alu2 = -861 	result = -861
XORI: 	pc = 72 	rd = r2 	rs1 = r1 	alu1 = -861 	alu2 = -941 	result = 240
SW: 	pc = 76 	base = r0 	src = r2 	offset = 36 	address = 36 	value = 240
ORI: 	pc = 80 	rd = r2 	rs1 = r1 	alu1 = -861 	alu2 = -941 	result = -781
SW: 	pc = 84 	base = r0 	src = r2 	offset = 40 	address = 40 	value = -781
ANDI: 	pc = 88 	rd = r2 	rs1 = r1 	alu1 = -861 	alu2 = -941 	result = -1021
SW: 	pc = 92 	base = r0 	src = r2 	offset = 44 	address = 44 	value = -1021
LUI: 	pc = 96 	rd = r1 	imm = -1431654400 	result = -1431654400
ADDI: 	pc = 100 	rd = r1 	rs1 = r1 	alu1 = -1431654400 	alu2 = -1366 	result = -1431655766
SLLI: 	pc = 104 	rd = r2 	rs1 = r1 	alu1 = -1431655766 	alu2 = 8 	result = -1431655936
SW: 	pc = 108 	base = r0 	src = r2 	offset = 48 	address = 48 	value = -1431655936
SRLI: 	pc = 112 	rd = r2 	rs1 = r1 	alu1 = -1431655766 	alu2 = 8 	result = 11184810
SW: 	pc = 116 	base = r0 	src = r2 	offset = 52 	address = 52 	value = 11184810
SRAI: 	pc = 120 	rd = r2 	rs1 = r1 	alu1 = -1431655766 	alu2 = 1032 	result = -5592406
SW: 	pc = 124 	base = r0 	src = r2 	offset = 56 	address = 56 	value = -5592406
End Running... pc:         128
SLTI true assert passed with 1
SLTI false assert passed with 0
SLTI equal assert passed with 0
SLTIU true assert passed with 1
SLTIU false assert passed with 0
SLTIU equal assert passed with 0
XORI assert passed with 240
ORI assert passed with -781
ANDI assert passed with -1021
SLLI assert passed with -1431655936
SLRI assert passed with 11184810
SRAI assert passed with -5592406
PASS: ALU immediates test
Instruction           0: 10101010101010101011000010110111
Instruction           1: 10101010101000001000000010010011
Instruction           2: 00001010101010101011000100110111
Instruction           3: 10101010101000010000000100010011
Instruction           4: 10101010101010101011000110110111
Instruction           5: 10101010101000011000000110010011
Instruction           6: 10101010101010101011001000110111
Instruction           7: 10101010101000100000001000010011
Instruction           8: 01010101010101010101001010110111
Instruction           9: 01010101010100101000001010010011
Instruction          10: 00000000001100001000011001100011
Instruction          11: 00000000010100000010110000100011
Instruction          12: 00000000100000000000000001101111
Instruction          13: 00000000010000000010110000100011
Instruction          14: 00000000001000001000011001100011
Instruction          15: 00000010010000000010100000100011
Instruction          16: 00000000100000000000000001101111
Instruction          17: 00000010010100000010100000100011
Instruction          18: 00000000001000001001011001100011
Instruction          19: 00000000010100000010101000100011
Instruction          20: 00000000100000000000000001101111
Instruction          21: 00000000010000000010101000100011
Instruction          22: 00000000001100001001011001100011
Instruction          23: 00000010010000000010011000100011
Instruction          24: 00000000100000000000000001101111
Instruction          25: 00000010010100000010011000100011
Instruction          26: 00000000001000001100011001100011
Instruction          27: 00000000010100000010111000100011
Instruction          28: 00000000100000000000000001101111
Instruction          29: 00000000010000000010111000100011
Instruction          30: 00000000000100010100011001100011
Instruction          31: 00000010010000000010101000100011
Instruction          32: 00000000100000000000000001101111
Instruction          33: 00000010010100000010101000100011
Instruction          34: 00000000000100010101011001100011
Instruction          35: 00000010010100000010000000100011
Instruction          36: 00000000100000000000000001101111
Instruction          37: 00000010010000000010000000100011
Instruction          38: 00000000001000001101011001100011
Instruction          39: 00000010010000000010110000100011
Instruction          40: 00000000100000000000000001101111
Instruction          41: 00000010010100000010110000100011
Instruction          42: 00000000000100010110011001100011
Instruction          43: 00000010010100000010001000100011
Instruction          44: 00000000100000000000000001101111
Instruction          45: 00000010010000000010001000100011
Instruction          46: 00000000001000001110011001100011
Instruction          47: 00000010010000000010111000100011
Instruction          48: 00000000100000000000000001101111
Instruction          49: 00000010010100000010111000100011
Instruction          50: 00000000001000001111011001100011
Instruction          51: 00000010010100000010010000100011
Instruction          52: 00000000100000000000000001101111
Instruction          53: 00000010010000000010010000100011
Instruction          54: 00000000000100010111011001100011
Instruction          55: 00000100010000000010000000100011
Instruction          56: 00000000100000000000000001101111
Instruction          57: 00000100010100000010000000100011
Running Branch test
LUI: 	pc = 0 	rd = r1 	imm = -1431654400 	result = -1431654400
ADDI: 	pc = 4 	rd = r1 	rs1 = r1 	alu1 = -1431654400 	alu2 = -1366 	result = -1431655766
LUI: 	pc = 8 	rd = r2 	imm = 178958336 	result = 178958336
ADDI: 	pc = 12 	rd = r2 	rs1 = r2 	alu1 = 178958336 	alu2 = -1366 	result = 178956970
LUI: 	pc = 16 	rd = r3 	imm = -1431654400 	result = -1431654400
ADDI: 	pc = 20 	rd = r3 	rs1 = r3 	alu1 = -1431654400 	alu2 = -1366 	result = -1431655766
LUI: 	pc = 24 	rd = r4 	imm = -1431654400 	result = -1431654400
ADDI: 	pc = 28 	rd = r4 	rs1 = r4 	alu1 = -1431654400 	alu2 = -1366 	result = -1431655766
LUI: 	pc = 32 	rd = r5 	imm = 1431654400 	result = 1431654400
