RISC-V.sim/sim_1/behav/xsim/simulate.log
Vivado Simulator 2020.1
Time resolution is 1 ps
Program to binary:
Instruction           0: 00000000000100000111000010110011
Instruction           1: 00000000001000000111000100110011
Instruction           2: 00000000001100000111000110110011
Instruction           3: 00000000000100000000001000010011
Instruction           4: 00000000000000001000000010010011
Instruction           5: 00000000000000000000000100110111
Instruction           6: 00000001010000010000000100010011
Instruction           7: 00000000000100011000000110010011
Instruction           8: 00000000000100010100010101100011
Instruction           9: 00000000000100100001001010110011
Instruction          10: 00000000010100110010010100100011
Instruction          11: 00000000010000110000001100010011
Instruction          12: 00000000000100011000000010110011
Instruction          13: 11111110001000001100100011100011
Instruction          14: 11111111111111111111111111111111
Running BLT prog test
AND: 	rd = r1 	rs1 = r0 	rs2 = r1 	alu1 = 0 	alu2 = 0 	result = 0
AND: 	rd = r2 	rs1 = r0 	rs2 = r2 	alu1 = 0 	alu2 = 0 	result = 0
AND: 	rd = r3 	rs1 = r0 	rs2 = r3 	alu1 = 0 	alu2 = 0 	result = 0
ADDI: 	rd = r4 	rs1 = r0 	alu1 = 0 	alu2 = 1 	result = 1
ADDI: 	rd = r1 	rs1 = r1 	alu1 = 0 	alu2 = 0 	result = 0
LUI: 	rd = r2 	imm = 0 	result = 0
ADDI: 	rd = r2 	rs1 = r2 	alu1 = 0 	alu2 = 20 	result = 20
ADDI: 	rd = r3 	rs1 = r3 	alu1 = 0 	alu2 = 1 	result = 1
BLT: 	rs1 = r2 	rs2 = r1 	adata = 20 	bdata = 0 	offset = 10 	br_ne = 1 	br_lt = 0 	unsign = 0
SLL: 	rd = r5 	rs1 = r4 	rs2 = r1 	alu1 = 1 	alu2 = 0 	result = 1
SW: 	base = r6 	src = r5 	offset = 10 	address = 10 	value = 1
ADDI: 	rd = r6 	rs1 = r6 	alu1 = 0 	alu2 = 4 	result = 4
ADD: 	rd = r1 	rs1 = r3 	rs2 = r1 	alu1 = 1 	alu2 = 0 	result = 1
BLT: 	rs1 = r1 	rs2 = r2 	adata = 1 	bdata = 20 	offset = -16 	br_ne = 1 	br_lt = 1 	unsign = 0
SLL: 	rd = r5 	rs1 = r4 	rs2 = r1 	alu1 = 1 	alu2 = 1 	result = 2
SW: 	base = r6 	src = r5 	offset = 10 	address = 14 	value = 2
ADDI: 	rd = r6 	rs1 = r6 	alu1 = 4 	alu2 = 4 	result = 8
ADD: 	rd = r1 	rs1 = r3 	rs2 = r1 	alu1 = 1 	alu2 = 1 	result = 2
BLT: 	rs1 = r1 	rs2 = r2 	adata = 2 	bdata = 20 	offset = -16 	br_ne = 1 	br_lt = 1 	unsign = 0
SLL: 	rd = r5 	rs1 = r4 	rs2 = r1 	alu1 = 1 	alu2 = 2 	result = 4
SW: 	base = r6 	src = r5 	offset = 10 	address = 18 	value = 4
ADDI: 	rd = r6 	rs1 = r6 	alu1 = 8 	alu2 = 4 	result = 12
ADD: 	rd = r1 	rs1 = r3 	rs2 = r1 	alu1 = 1 	alu2 = 2 	result = 3
BLT: 	rs1 = r1 	rs2 = r2 	adata = 3 	bdata = 20 	offset = -16 	br_ne = 1 	br_lt = 1 	unsign = 0
SLL: 	rd = r5 	rs1 = r4 	rs2 = r1 	alu1 = 1 	alu2 = 3 	result = 8
SW: 	base = r6 	src = r5 	offset = 10 	address = 22 	value = 8
ADDI: 	rd = r6 	rs1 = r6 	alu1 = 12 	alu2 = 4 	result = 16
ADD: 	rd = r1 	rs1 = r3 	rs2 = r1 	alu1 = 1 	alu2 = 3 	result = 4
BLT: 	rs1 = r1 	rs2 = r2 	adata = 4 	bdata = 20 	offset = -16 	br_ne = 1 	br_lt = 1 	unsign = 0
SLL: 	rd = r5 	rs1 = r4 	rs2 = r1 	alu1 = 1 	alu2 = 4 	result = 16
SW: 	base = r6 	src = r5 	offset = 10 	address = 26 	value = 16
ADDI: 	rd = r6 	rs1 = r6 	alu1 = 16 	alu2 = 4 	result = 20
ADD: 	rd = r1 	rs1 = r3 	rs2 = r1 	alu1 = 1 	alu2 = 4 	result = 5
BLT: 	rs1 = r1 	rs2 = r2 	adata = 5 	bdata = 20 	offset = -16 	br_ne = 1 	br_lt = 1 	unsign = 0
SLL: 	rd = r5 	rs1 = r4 	rs2 = r1 	alu1 = 1 	alu2 = 5 	result = 32
SW: 	base = r6 	src = r5 	offset = 10 	address = 30 	value = 32
ADDI: 	rd = r6 	rs1 = r6 	alu1 = 20 	alu2 = 4 	result = 24
ADD: 	rd = r1 	rs1 = r3 	rs2 = r1 	alu1 = 1 	alu2 = 5 	result = 6
BLT: 	rs1 = r1 	rs2 = r2 	adata = 6 	bdata = 20 	offset = -16 	br_ne = 1 	br_lt = 1 	unsign = 0
SLL: 	rd = r5 	rs1 = r4 	rs2 = r1 	alu1 = 1 	alu2 = 6 	result = 64
SW: 	base = r6 	src = r5 	offset = 10 	address = 34 	value = 64
ADDI: 	rd = r6 	rs1 = r6 	alu1 = 24 	alu2 = 4 	result = 28
ADD: 	rd = r1 	rs1 = r3 	rs2 = r1 	alu1 = 1 	alu2 = 6 	result = 7
BLT: 	rs1 = r1 	rs2 = r2 	adata = 7 	bdata = 20 	offset = -16 	br_ne = 1 	br_lt = 1 	unsign = 0
SLL: 	rd = r5 	rs1 = r4 	rs2 = r1 	alu1 = 1 	alu2 = 7 	result = 128
SW: 	base = r6 	src = r5 	offset = 10 	address = 38 	value = 128
ADDI: 	rd = r6 	rs1 = r6 	alu1 = 28 	alu2 = 4 	result = 32
ADD: 	rd = r1 	rs1 = r3 	rs2 = r1 	alu1 = 1 	alu2 = 7 	result = 8
BLT: 	rs1 = r1 	rs2 = r2 	adata = 8 	bdata = 20 	offset = -16 	br_ne = 1 	br_lt = 1 	unsign = 0
SLL: 	rd = r5 	rs1 = r4 	rs2 = r1 	alu1 = 1 	alu2 = 8 	result = 256
SW: 	base = r6 	src = r5 	offset = 10 	address = 42 	value = 256
ADDI: 	rd = r6 	rs1 = r6 	alu1 = 32 	alu2 = 4 	result = 36
ADD: 	rd = r1 	rs1 = r3 	rs2 = r1 	alu1 = 1 	alu2 = 8 	result = 9
BLT: 	rs1 = r1 	rs2 = r2 	adata = 9 	bdata = 20 	offset = -16 	br_ne = 1 	br_lt = 1 	unsign = 0
SLL: 	rd = r5 	rs1 = r4 	rs2 = r1 	alu1 = 1 	alu2 = 9 	result = 512
SW: 	base = r6 	src = r5 	offset = 10 	address = 46 	value = 512
ADDI: 	rd = r6 	rs1 = r6 	alu1 = 36 	alu2 = 4 	result = 40
ADD: 	rd = r1 	rs1 = r3 	rs2 = r1 	alu1 = 1 	alu2 = 9 	result = 10
BLT: 	rs1 = r1 	rs2 = r2 	adata = 10 	bdata = 20 	offset = -16 	br_ne = 1 	br_lt = 1 	unsign = 0
SLL: 	rd = r5 	rs1 = r4 	rs2 = r1 	alu1 = 1 	alu2 = 10 	result = 1024
SW: 	base = r6 	src = r5 	offset = 10 	address = 50 	value = 1024
ADDI: 	rd = r6 	rs1 = r6 	alu1 = 40 	alu2 = 4 	result = 44
ADD: 	rd = r1 	rs1 = r3 	rs2 = r1 	alu1 = 1 	alu2 = 10 	result = 11
BLT: 	rs1 = r1 	rs2 = r2 	adata = 11 	bdata = 20 	offset = -16 	br_ne = 1 	br_lt = 1 	unsign = 0
SLL: 	rd = r5 	rs1 = r4 	rs2 = r1 	alu1 = 1 	alu2 = 11 	result = 2048
SW: 	base = r6 	src = r5 	offset = 10 	address = 54 	value = 2048
ADDI: 	rd = r6 	rs1 = r6 	alu1 = 44 	alu2 = 4 	result = 48
ADD: 	rd = r1 	rs1 = r3 	rs2 = r1 	alu1 = 1 	alu2 = 11 	result = 12
BLT: 	rs1 = r1 	rs2 = r2 	adata = 12 	bdata = 20 	offset = -16 	br_ne = 1 	br_lt = 1 	unsign = 0
SLL: 	rd = r5 	rs1 = r4 	rs2 = r1 	alu1 = 1 	alu2 = 12 	result = 4096
SW: 	base = r6 	src = r5 	offset = 10 	address = 58 	value = 4096
ADDI: 	rd = r6 	rs1 = r6 	alu1 = 48 	alu2 = 4 	result = 52
ADD: 	rd = r1 	rs1 = r3 	rs2 = r1 	alu1 = 1 	alu2 = 12 	result = 13
BLT: 	rs1 = r1 	rs2 = r2 	adata = 13 	bdata = 20 	offset = -16 	br_ne = 1 	br_lt = 1 	unsign = 0
SLL: 	rd = r5 	rs1 = r4 	rs2 = r1 	alu1 = 1 	alu2 = 13 	result = 8192
SW: 	base = r6 	src = r5 	offset = 10 	address = 62 	value = 8192
ADDI: 	rd = r6 	rs1 = r6 	alu1 = 52 	alu2 = 4 	result = 56
ADD: 	rd = r1 	rs1 = r3 	rs2 = r1 	alu1 = 1 	alu2 = 13 	result = 14
BLT: 	rs1 = r1 	rs2 = r2 	adata = 14 	bdata = 20 	offset = -16 	br_ne = 1 	br_lt = 1 	unsign = 0
SLL: 	rd = r5 	rs1 = r4 	rs2 = r1 	alu1 = 1 	alu2 = 14 	result = 16384
SW: 	base = r6 	src = r5 	offset = 10 	address = 66 	value = 16384
ADDI: 	rd = r6 	rs1 = r6 	alu1 = 56 	alu2 = 4 	result = 60
ADD: 	rd = r1 	rs1 = r3 	rs2 = r1 	alu1 = 1 	alu2 = 14 	result = 15
BLT: 	rs1 = r1 	rs2 = r2 	adata = 15 	bdata = 20 	offset = -16 	br_ne = 1 	br_lt = 1 	unsign = 0
SLL: 	rd = r5 	rs1 = r4 	rs2 = r1 	alu1 = 1 	alu2 = 15 	result = 32768
SW: 	base = r6 	src = r5 	offset = 10 	address = 70 	value = 32768
ADDI: 	rd = r6 	rs1 = r6 	alu1 = 60 	alu2 = 4 	result = 64
ADD: 	rd = r1 	rs1 = r3 	rs2 = r1 	alu1 = 1 	alu2 = 15 	result = 16
BLT: 	rs1 = r1 	rs2 = r2 	adata = 16 	bdata = 20 	offset = -16 	br_ne = 1 	br_lt = 1 	unsign = 0
SLL: 	rd = r5 	rs1 = r4 	rs2 = r1 	alu1 = 1 	alu2 = 16 	result = 65536
SW: 	base = r6 	src = r5 	offset = 10 	address = 74 	value = 65536
ADDI: 	rd = r6 	rs1 = r6 	alu1 = 64 	alu2 = 4 	result = 68
ADD: 	rd = r1 	rs1 = r3 	rs2 = r1 	alu1 = 1 	alu2 = 16 	result = 17
BLT: 	rs1 = r1 	rs2 = r2 	adata = 17 	bdata = 20 	offset = -16 	br_ne = 1 	br_lt = 1 	unsign = 0
SLL: 	rd = r5 	rs1 = r4 	rs2 = r1 	alu1 = 1 	alu2 = 17 	result = 131072
SW: 	base = r6 	src = r5 	offset = 10 	address = 78 	value = 131072
ADDI: 	rd = r6 	rs1 = r6 	alu1 = 68 	alu2 = 4 	result = 72
ADD: 	rd = r1 	rs1 = r3 	rs2 = r1 	alu1 = 1 	alu2 = 17 	result = 18
BLT: 	rs1 = r1 	rs2 = r2 	adata = 18 	bdata = 20 	offset = -16 	br_ne = 1 	br_lt = 1 	unsign = 0
SLL: 	rd = r5 	rs1 = r4 	rs2 = r1 	alu1 = 1 	alu2 = 18 	result = 262144
SW: 	base = r6 	src = r5 	offset = 10 	address = 82 	value = 262144
ADDI: 	rd = r6 	rs1 = r6 	alu1 = 72 	alu2 = 4 	result = 76
ADD: 	rd = r1 	rs1 = r3 	rs2 = r1 	alu1 = 1 	alu2 = 18 	result = 19
BLT: 	rs1 = r1 	rs2 = r2 	adata = 19 	bdata = 20 	offset = -16 	br_ne = 1 	br_lt = 1 	unsign = 0
SLL: 	rd = r5 	rs1 = r4 	rs2 = r1 	alu1 = 1 	alu2 = 19 	result = 524288
SW: 	base = r6 	src = r5 	offset = 10 	address = 86 	value = 524288
ADDI: 	rd = r6 	rs1 = r6 	alu1 = 76 	alu2 = 4 	result = 80
ADD: 	rd = r1 	rs1 = r3 	rs2 = r1 	alu1 = 1 	alu2 = 19 	result = 20
BLT: 	rs1 = r1 	rs2 = r2 	adata = 20 	bdata = 20 	offset = -16 	br_ne = 0 	br_lt = 0 	unsign = 0
End Running... pc:          56
BLT PROG assert success with           1
BLT PROG assert success with           2
BLT PROG assert success with           4
BLT PROG assert success with           8
BLT PROG assert success with          16
BLT PROG assert success with          32
BLT PROG assert success with          64
BLT PROG assert success with         128
BLT PROG assert success with         256
BLT PROG assert success with         512
BLT PROG assert success with        1024
BLT PROG assert success with        2048
BLT PROG assert success with        4096
BLT PROG assert success with        8192
BLT PROG assert success with       16384
BLT PROG assert success with       32768
BLT PROG assert success with       65536
BLT PROG assert success with      131072
BLT PROG assert success with      262144
BLT PROG assert success with      524288
Instruction           0: 00000000000000000000000010110111
Instruction           1: 01001101110100001000000010010011
Instruction           2: 10101010101010101011010100110111
Instruction           3: 10101010101001010000010100010011
Instruction           4: 00000000000000010000010110110111
Instruction           5: 11111111111101011000010110010011
Instruction           6: 11111111111111110000011000110111
Instruction           7: 00000000000001100000011000010011
Instruction           8: 00010000000001010001011011110011
Instruction           9: 00010000000001011010011011110011
Instruction          10: 00000000110100000010101000100011
Instruction          11: 00010000000001100011011011110011
Instruction          12: 00000000110100000010110000100011
Instruction          13: 00010000000000000011011011110011
Instruction          14: 00000000110100000010111000100011
Instruction          15: 10101010101000000010011011110011
Instruction          16: 00000010110100000010000000100011
Instruction          17: 10101010111000000010011011110011
Instruction          18: 00000010110100000010001000100011
Instruction          19: 00000000000000000000000000110011
Instruction          20: 00000000000000000000000000110011
Instruction          21: 10101010110000000010011011110011
Instruction          22: 00000010110100000010010000100011
Instruction          23: 11111111111111111111111111111111
Running CSR and timer test
LUI: 	rd = r1 	imm = 0 	result = 0
ADDI: 	rd = r1 	rs1 = r1 	alu1 = 0 	alu2 = 1245 	result = 1245
LUI: 	rd = r10 	imm = -1431654400 	result = -1431654400
ADDI: 	rd = r10 	rs1 = r10 	alu1 = -1431654400 	alu2 = -1366 	result = -1431655766
LUI: 	rd = r11 	imm = 65536 	result = 65536
ADDI: 	rd = r11 	rs1 = r11 	alu1 = 65536 	alu2 = -1 	result = 65535
LUI: 	rd = r12 	imm = -65536 	result = -65536
ADDI: 	rd = r12 	rs1 = r12 	alu1 = -65536 	alu2 = 0 	result = -65536
CSRRW: 	rd = r13 	rs1 = r10 	data = -1431655766 	result = 0
CSRRS: 	rd = r13 	rs1 = r11 	data = 65535 	result = -1431655766
SW: 	base = r0 	src = r13 	offset = 20 	address = 20 	value = -1431655766
CSRRC: 	rd = r13 	rs1 = r12 	data = -65536 	result = -1431633921
SW: 	base = r0 	src = r13 	offset = 24 	address = 24 	value = -1431633921
CSRRC: 	rd = r13 	rs1 = r0 	data = 0 	result = 65535
SW: 	base = r0 	src = r13 	offset = 28 	address = 28 	value = 65535
CSRRS: 	rd = r13 	rs1 = r0 	data = 0 	result = 15
SW: 	base = r0 	src = r13 	offset = 32 	address = 32 	value = 15
CSRRS: 	rd = r13 	rs1 = r0 	data = 0 	result = 17
SW: 	base = r0 	src = r13 	offset = 36 	address = 36 	value = 17
ADD: 	rd = r0 	rs1 = r0 	rs2 = r0 	alu1 = 0 	alu2 = 0 	result = 0
ADD: 	rd = r0 	rs1 = r0 	rs2 = r0 	alu1 = 0 	alu2 = 0 	result = 0
CSRRS: 	rd = r13 	rs1 = r0 	data = 0 	result = 2
SW: 	base = r0 	src = r13 	offset =